{
  "type": "service_account",
  "project_id": "capstone-dtv",
  "private_key_id": "68fa13503521392fbf2ea8205daa2bcbea8fd6c7",
  "private_key": "-----BEGIN PRIVATE KEY-----\nMIIEvgIBADANBgkqhkiG9w0BAQEFAASCBKgwggSkAgEAAoIBAQDSoVhIWxa7e4ut\nUkTLDt4Pn8IksvCyBDAREIK1rBZEsIIa96mj+XrHDG2mIJHdhct2V6AOoqSwDeY/\nq5tL8ePFIBVRvpaHrO2yNHo4VmByLhhPduwFb1ET9Pff+orsvZQRdOQEPtK/M6Ht\nSwAWG8ou/UZH7oYcHbdja0XHzeNF8N9XGnMqzBW0ampgzXrbxs4F3i2D1imk7ZnU\n7l6KAMdIG9Q23jG1PMBPEHiSPfn/lj57c4y963/AdyY43kmEC9X1tLV0GyOaJU0W\ngJeMxt3OnnxIigmhhLTBsCHNC15VCHYsFkQwiW8q/d2eLkI0EJjOIPpxKD/a6vvA\ncXLXWdgzAgMBAAECggEABEzjFGzzDdPdGiZMf81J3g2QdUhbXv8RvO448URgERd9\n7XRUxsEUPhEgi9KPkHNi5QObq4qrs7hUUBN5SRoUYOirb2AqgP7dHwtEPYrpTvQX\n5QwPGcl1nEX3wl9WBtxZFoX/sym4bUEpCXRXNGFGBeenWZHFPeAY+2HYVtbJs0vI\n9ryhHN4nfrkwe7e52dlcgoFshmjT9mbWaZEKDoE1/wWXL2UQ+GMaqHdDiFaAGxLG\nH/bK6c8A1xpywEizwrjhkXrhYCHyD0sZ7XXT8j0mO+x2GnUbKb+MPYQqQZxGViW2\nrxsyMoMSv8HP5gCjksGqTwDPLrZE39odHkmK5rSJDQKBgQD9mJTZnbpqEwn6e5r+\nryFIFnPFOfTUmDwVvPXTHEY4qPpS/KTCEkoRkHjki5l19217+Z3Bo2fy/0e5hDHt\n351YMsKI7RpFzvR52cg+jIOwUcuGbnu5NRp6WlIjiSpYOw/Mql7YKYB2cG9/mu6e\nMLtmP2AvWTS9mOQyfp0cv/RAlwKBgQDUoH7YCo50h7f3KF0boRnHsCifYLwfOKXp\nAaOnXkxHviNqTPpEDYQy1WOxVKj6f9V3VHDRxA7wM3ngurG4pAHScSRySOxbmlt8\nL/Saeu9S3soFk/nqPV/60BOl7kUYzMqmvrDs0qfrgh5Jj8qnMn4uGHKYIX9OfR5k\nGh7ugB18xQKBgQCVc7mtck4tO2EzFGto0w87K7g4sIpATCOE8CKzssMTm0pDZA85\nLIwoQ8trbXYYVqRYXuiA+OtHAvljNKw0MwfItcl95rYIFApyUU24xxjI7buTU0Np\nCAm9t8MWnDyvWMdb58AThonlwyeCvW0JH1Eh1hG6dckmP5ekxoeTLPEmqwKBgAv2\nR4yR83e81u2xuKNASfoBABgPUiYTgsn8DJ/y3ym+GbH2SLIhbImLlcM5NxR4sqK2\n/m3esNR0oOuytSLlHzEeqmU/kwSIR5NSA1nZhrNL02PC8nFqKIcsw543LG37v37o\nBX4dT9MhC+EplMYZQh4HxBKo98eLpHUPPyQ90urdAoGBAKMc47kCk9glq5tDLyO2\njS1NoNVRJCAFJJfyvN9kMdp5ey9KJXRRYVAhoPUFY/mkKIZqOVwAV5hNlxbpF72e\nYkNBJm6hePQ4jwDmDqrOzVGuRMT+7tIqUd0/VNHfIFK/g00hCp9EvR6wyembIQCw\nJcy4aSmn7GdAgE2+0gMGsXXb\n-----END PRIVATE KEY-----\n",
  "client_email": "firebase-adminsdk-uwgur@capstone-dtv.iam.gserviceaccount.com",
  "client_id": "110215130510999158541",
  "auth_uri": "https://accounts.google.com/o/oauth2/auth",
  "token_uri": "https://oauth2.googleapis.com/token",
  "auth_provider_x509_cert_url": "https://www.googleapis.com/oauth2/v1/certs",
  "client_x509_cert_url": "https://www.googleapis.com/robot/v1/metadata/x509/firebase-adminsdk-uwgur%40capstone-dtv.iam.gserviceaccount.com"
}
